ISO3 Country Code	Country name	Source	Time	Stock	Stock_perc
BEL	Belgium*	Eurostat	01/20/2022	5630	0.498147651671803
EST	Estonia*	Eurostat	01/20/2022	11259	0.996206822410805
BGR	Bulgaria	Eurostat	01/21/2022	8972	0.793850929094035
AUT	Austria	Eurostat	01/21/2022	11898	1.05274613847089
LUX	Luxembourg	Eurostat	01/21/2022	1007	0.0891002993309957
PRT	Portugal	Eurostat	01/21/2022	28629	2.53312062517088
ITA	Italy	Eurostat	01/21/2022	235907	20.8732714143766
IRL	Ireland	Eurostat	01/21/2022	3492	0.30897541734244
LVA	Latvia	Eurostat	01/21/2022	5745	0.508322958943962
FIN	Finland	Eurostat	01/21/2022	5837	0.51646320476169
ESP	Spain	Eurostat	01/21/2022	107234	9.48816434802382
CZE	Czechia	Eurostat	01/21/2022	162701	14.3959362477183
SVN	Slovenia	Eurostat	01/21/2022	2397	0.212088795924922
FRA	France	Eurostat	01/21/2022	20285	1.79483572187611
DEU	Germany	Eurostat	01/21/2022	134989	11.9439526379263
LTU	Lithuania	Eurostat	01/21/2022	26898	2.37996013049168
ROU	Romania	Eurostat	01/21/2022	2172	0.19218058604461
NLD	Netherlands	Eurostat	01/21/2022	7082	0.626621966099415
SVK	Slovakia	Eurostat	01/21/2022	4429	0.391882051377338
DNK	Denmark	Eurostat	01/21/2022	12821	1.13441403944657
HUN	Hungary	Eurostat	01/21/2022	27380	2.42260794010195
SWE	Sweden	Eurostat	01/21/2022	6147	0.54389229393012
POL	Poland	UNDESA	07/20/2022	272594	24.119371396061
CYP	Cyprus	UNDESA	07/20/2022	3257	0.288182398134114
MLT	Malta	UNDESA	07/20/2022	868	0.076801449671603
HRV	Croatia	UNDESA	07/20/2022	711	0.0629099432217854
GRC	Greece	UNDESA	07/20/2022	19846	1.75599259237631
